10 1.07944e-35 
10.7152 1.177e-35 
11.4815 1.28187e-35 
12.3027 1.39455e-35 
13.1826 1.51558e-35 
14.1254 1.6455e-35 
15.1356 1.78494e-35 
16.2181 1.93452e-35 
17.378 2.09495e-35 
18.6209 2.26697e-35 
19.9526 2.45135e-35 
21.3796 2.64896e-35 
22.9087 2.86069e-35 
24.5471 3.08752e-35 
26.3027 3.33047e-35 
28.1838 3.59067e-35 
30.1995 3.86929e-35 
32.3594 4.16761e-35 
34.6737 4.48698e-35 
37.1535 4.82885e-35 
39.8107 5.19478e-35 
42.658 5.58643e-35 
45.7088 6.00557e-35 
48.9779 6.45409e-35 
52.4807 6.93404e-35 
56.2341 7.44757e-35 
60.256 7.99701e-35 
64.5654 8.58485e-35 
69.1831 9.21371e-35 
74.131 9.88645e-35 
79.4328 1.06061e-34 
85.1138 1.13758e-34 
91.2011 1.21992e-34 
97.7237 1.30798e-34 
104.713 1.40216e-34 
112.202 1.50288e-34 
120.226 1.61059e-34 
128.825 1.72577e-34 
138.038 1.84893e-34 
147.911 1.98062e-34 
158.489 2.12141e-34 
169.824 2.27192e-34 
181.97 2.43283e-34 
194.984 2.60482e-34 
208.93 2.78866e-34 
223.872 2.98514e-34 
239.883 3.19511e-34 
257.04 3.41948e-34 
275.423 3.6592e-34 
295.121 3.91532e-34 
316.228 4.1889e-34 
338.844 4.48112e-34 
363.078 4.7932e-34 
389.045 5.12643e-34 
416.869 5.48222e-34 
446.684 5.86201e-34 
478.63 6.26736e-34 
512.861 6.69992e-34 
549.541 7.16143e-34 
588.844 7.65371e-34 
630.957 8.17872e-34 
676.083 8.73851e-34 
724.436 9.33522e-34 
776.247 9.97115e-34 
831.764 1.06487e-33 
891.251 1.13703e-33 
954.993 1.21388e-33 
1023.29 1.29567e-33 
1096.48 1.38272e-33 
1174.9 1.47531e-33 
1258.93 1.57377e-33 
1348.96 1.67843e-33 
1445.44 1.78964e-33 
1548.82 1.90775e-33 
1659.59 2.03315e-33 
1778.28 2.16622e-33 
1905.46 2.30737e-33 
2041.74 2.45701e-33 
2187.76 2.61557e-33 
2344.23 2.78351e-33 
2511.89 2.96127e-33 
2691.53 3.14934e-33 
2884.03 3.3482e-33 
3090.3 3.55833e-33 
3311.31 3.78026e-33 
3548.13 4.0145e-33 
3801.89 4.26157e-33 
4073.8 4.52202e-33 
4365.16 4.7964e-33 
4677.35 5.08527e-33 
5011.87 5.38918e-33 
5370.32 5.7087e-33 
5754.4 6.04443e-33 
6165.95 6.39693e-33 
6606.93 6.76681e-33 
7079.46 7.15465e-33 
7585.78 7.56105e-33 
8128.31 7.98662e-33 
8709.64 8.43197e-33 
9332.54 8.8977e-33 
10000 9.38443e-33 
